"Book name","Year","Page count","ISBN","Publisher","Last name","First name","Second name","Birthday"
"Shooter",1982,320,"978-0452261346","Donald M. Grant, Publisher, Inc.","King","Stivin","","21.09.1947"
"Fetching three",1986,299,"978-0452261349","Donald M. Grant, Publisher, Inc.","King","Stiven","","21.09.1947"
"Labyrinth of reflections",1997,434,"978-5976212568","ACT","Lukyanenko","Sergei","Vasilevich","11.04.1986"